<?xml version="1.0" encoding="utf-8"?>
<!-- Generator: Adobe Illustrator 25.4.1, SVG Export Plug-In . SVG Version: 6.00 Build 0)  -->
<svg version="1.1" id="Layer_1" xmlns="http://www.w3.org/2000/svg" xmlns:xlink="http://www.w3.org/1999/xlink" x="0px" y="0px"
	 viewBox="0 0 48 48" style="enable-background:new 0 0 48 48;" xml:space="preserve">
<style type="text/css">
	.st0{fill:url(#SVGID_1_);stroke:#6B6B6B;stroke-width:1.5;stroke-linecap:round;stroke-linejoin:round;}
	.st1{fill:none;stroke:#6B6B6B;stroke-width:1.5;stroke-linecap:round;stroke-linejoin:round;}
</style>
<linearGradient id="SVGID_1_" gradientUnits="userSpaceOnUse" x1="24" y1="21.5" x2="24" y2="3.5" gradientTransform="matrix(1 0 0 -1 0 50)">
	<stop  offset="0" style="stop-color:#EE7C48"/>
	<stop  offset="1" style="stop-color:#EDAA52"/>
</linearGradient>
<path class="st0" d="M34.5,45l-10.6,1.5L13.5,45V28.5L23.9,30l10.6-1.5V45z"/>
<path class="st1" d="M23.9,16.5c-2,0-3.9-0.8-5.3-2.2c-1.4-1.4-2.2-3.3-2.2-5.3l0,0c0-2,0.8-3.9,2.2-5.3c1.4-1.4,3.3-2.2,5.3-2.2
	l0,0c1,0,2,0.2,2.9,0.6c0.9,0.4,1.7,0.9,2.4,1.6c0.7,0.7,1.2,1.5,1.6,2.4C31.2,7,31.4,8,31.4,9l0,0c0,2-0.8,3.9-2.2,5.3
	C27.8,15.7,25.9,16.5,23.9,16.5L23.9,16.5z"/>
<path class="st1" d="M19.5,37.5l-15,3.7c-0.3,0.1-0.6,0.1-0.8,0S3.2,41,3,40.7c-0.2-0.2-0.3-0.5-0.3-0.8c0-0.3,0-0.6,0.1-0.8
	l6.9-14.9c0.2-0.5,0.6-1,1.1-1.3c0.5-0.3,1-0.5,1.6-0.5h23.2c0.6,0,1.1,0.2,1.6,0.5c0.5,0.3,0.9,0.8,1.1,1.3l6.8,14.9
	c0.1,0.3,0.2,0.5,0.1,0.8c0,0.3-0.2,0.5-0.3,0.8c-0.2,0.2-0.4,0.4-0.7,0.5c-0.3,0.1-0.6,0.1-0.8,0l-14.9-3.7"/>
</svg>
