<svg width="48" height="48" viewBox="0 0 48 48" fill="none" xmlns="http://www.w3.org/2000/svg">
<mask id="path-1-inside-1_12_30125" fill="white">
<path fill-rule="evenodd" clip-rule="evenodd" d="M24.9583 38.375C31.8389 38.375 37.4167 32.7973 37.4167 25.9167C37.4167 19.0362 31.8389 13.4584 24.9583 13.4584C18.0778 13.4584 12.5 19.0362 12.5 25.9167C12.5 32.7973 18.0778 38.375 24.9583 38.375ZM24.9583 31.6667C28.134 31.6667 30.7083 29.0923 30.7083 25.9167C30.7083 22.741 28.134 20.1667 24.9583 20.1667C21.7827 20.1667 19.2083 22.741 19.2083 25.9167C19.2083 29.0923 21.7827 31.6667 24.9583 31.6667Z"/>
</mask>
<path fill-rule="evenodd" clip-rule="evenodd" d="M24.9583 38.375C31.8389 38.375 37.4167 32.7973 37.4167 25.9167C37.4167 19.0362 31.8389 13.4584 24.9583 13.4584C18.0778 13.4584 12.5 19.0362 12.5 25.9167C12.5 32.7973 18.0778 38.375 24.9583 38.375ZM24.9583 31.6667C28.134 31.6667 30.7083 29.0923 30.7083 25.9167C30.7083 22.741 28.134 20.1667 24.9583 20.1667C21.7827 20.1667 19.2083 22.741 19.2083 25.9167C19.2083 29.0923 21.7827 31.6667 24.9583 31.6667Z" fill="url(#paint0_linear_12_30125)"/>
<path d="M35.9167 25.9167C35.9167 31.9688 31.0105 36.875 24.9583 36.875V39.875C32.6673 39.875 38.9167 33.6257 38.9167 25.9167H35.9167ZM24.9583 14.9584C31.0105 14.9584 35.9167 19.8646 35.9167 25.9167H38.9167C38.9167 18.2077 32.6673 11.9584 24.9583 11.9584V14.9584ZM14 25.9167C14 19.8646 18.9062 14.9584 24.9583 14.9584V11.9584C17.2494 11.9584 11 18.2077 11 25.9167H14ZM24.9583 36.875C18.9062 36.875 14 31.9688 14 25.9167H11C11 33.6257 17.2494 39.875 24.9583 39.875V36.875ZM29.2083 25.9167C29.2083 28.2639 27.3055 30.1667 24.9583 30.1667V33.1667C28.9624 33.1667 32.2083 29.9207 32.2083 25.9167H29.2083ZM24.9583 21.6667C27.3055 21.6667 29.2083 23.5695 29.2083 25.9167H32.2083C32.2083 21.9126 28.9624 18.6667 24.9583 18.6667V21.6667ZM20.7083 25.9167C20.7083 23.5695 22.6111 21.6667 24.9583 21.6667V18.6667C20.9543 18.6667 17.7083 21.9126 17.7083 25.9167H20.7083ZM24.9583 30.1667C22.6111 30.1667 20.7083 28.2639 20.7083 25.9167H17.7083C17.7083 29.9207 20.9543 33.1667 24.9583 33.1667V30.1667Z" fill="#6B6B6B" mask="url(#path-1-inside-1_12_30125)"/>
<path d="M24.9584 4.83337C36.6029 4.83337 46.0417 14.4498 46.0417 26.3133C46.0417 27.1504 45.9985 27.9766 45.9012 28.7917" stroke="#6B6B6B" stroke-width="1.5" stroke-linecap="round"/>
<path d="M15.375 44.4805C18.3306 46.0905 21.7205 47 25.3329 47C32.3034 47 38.4688 43.5918 42.2083 38.375" stroke="#6B6B6B" stroke-width="1.5" stroke-linecap="round"/>
<path d="M15.375 7.70837C8.54071 11.1815 3.875 18.1597 3.875 26.1959C3.875 30.3316 5.10167 34.1787 7.23738 37.4167" stroke="#6B6B6B" stroke-width="1.5" stroke-linecap="round"/>
<path d="M9.62496 32.625L8.69355 38.375L2.91663 37.459" stroke="#6B6B6B" stroke-width="1.4" stroke-linecap="round" stroke-linejoin="round"/>
<path d="M37.4166 38.5245L43.0395 37.4166L44.125 43.1666" stroke="#6B6B6B" stroke-width="1.4" stroke-linecap="round" stroke-linejoin="round"/>
<path d="M27.5346 8.66667L23.0416 4.71001L27.8333 1" stroke="#6B6B6B" stroke-width="1.4" stroke-linecap="round" stroke-linejoin="round"/>
<defs>
<linearGradient id="paint0_linear_12_30125" x1="24.9583" y1="13.4584" x2="24.9583" y2="38.375" gradientUnits="userSpaceOnUse">
<stop stop-color="#FF6C37"/>
<stop offset="1" stop-color="#FFB400"/>
</linearGradient>
</defs>
</svg>
